%YAML 1.1
%TAG !u! tag:unity3d.com,2011:
--- !u!114 &11400000
MonoBehaviour:
  m_ObjectHideFlags: 0
  m_CorrespondingSourceObject: {fileID: 0}
  m_PrefabInstance: {fileID: 0}
  m_PrefabAsset: {fileID: 0}
  m_GameObject: {fileID: 0}
  m_Enabled: 1
  m_EditorHideFlags: 0
  m_Script: {fileID: 11500000, guid: 468a46d0ae32c3544b7d98094e6448a9, type: 3}
  m_Name: AddressableAssetSettings
  m_EditorClassIdentifier: 
  m_DefaultGroup: f808434d3a926894ba6e80f483e769c2
  m_BuildRemoteCatalog: 0
  m_RemoteCatalogBuildPath:
    m_Id: efe34e3beda37524ca65ad5943f7ca77
  m_RemoteCatalogLoadPath:
    m_Id: 966ac4f14464ec6488c555f9dfb75325
  m_overridePlayerVersion: 
  m_GroupAssets:
  - {fileID: 11400000, guid: ad6bd90e67ab5fc43a30267b1be2eb6e, type: 2}
  - {fileID: 11400000, guid: ee301e26a42e5234ab218e3b2c96850d, type: 2}
  m_BuildSettings:
    m_CompileScriptsInVirtualMode: 0
    m_CleanupStreamingAssetsAfterBuilds: 1
    m_LogResourceManagerExceptions: 1
    m_BundleBuildPath: Temp/com.unity.addressables/AssetBundles
  m_ProfileSettings:
    m_Profiles:
    - m_InheritedParent: 
      m_Id: 50772fb3243d55f49848ba23f314c084
      m_ProfileName: Default
      m_Values:
      - m_Id: f18f49bac6c0e0340a5cb2f6f6c712e4
        m_Value: '[UnityEditor.EditorUserBuildSettings.activeBuildTarget]'
      - m_Id: 696304d0e8552c8488abfedb7cb088a0
        m_Value: '[UnityEngine.AddressableAssets.Addressables.BuildPath]/[BuildTarget]'
      - m_Id: b5f35442cb238b549b5c39306225b542
        m_Value: '{UnityEngine.AddressableAssets.Addressables.RuntimePath}/[BuildTarget]'
      - m_Id: efe34e3beda37524ca65ad5943f7ca77
        m_Value: ServerData/[BuildTarget]
      - m_Id: 966ac4f14464ec6488c555f9dfb75325
        m_Value: http://[PrivateIpAddress]:[HostingServicePort]
    - m_InheritedParent: 
      m_Id: c0754356409e2e64da2ede22e99040ad
      m_ProfileName: Roguelike
      m_Values:
      - m_Id: f18f49bac6c0e0340a5cb2f6f6c712e4
        m_Value: '[UnityEditor.EditorUserBuildSettings.activeBuildTarget]'
      - m_Id: 696304d0e8552c8488abfedb7cb088a0
        m_Value: '[UnityEngine.AddressableAssets.Addressables.BuildPath]/[BuildTarget]'
      - m_Id: b5f35442cb238b549b5c39306225b542
        m_Value: '{UnityEngine.AddressableAssets.Addressables.RuntimePath}/[BuildTarget]'
      - m_Id: efe34e3beda37524ca65ad5943f7ca77
        m_Value: ServerData/[BuildTarget]
      - m_Id: 966ac4f14464ec6488c555f9dfb75325
        m_Value: http://[PrivateIpAddress]:[HostingServicePort]
    m_ProfileEntryNames:
    - m_Id: f18f49bac6c0e0340a5cb2f6f6c712e4
      m_Name: BuildTarget
      m_InlineUsage: 0
    - m_Id: 696304d0e8552c8488abfedb7cb088a0
      m_Name: LocalBuildPath
      m_InlineUsage: 0
    - m_Id: b5f35442cb238b549b5c39306225b542
      m_Name: LocalLoadPath
      m_InlineUsage: 0
    - m_Id: efe34e3beda37524ca65ad5943f7ca77
      m_Name: RemoteBuildPath
      m_InlineUsage: 0
    - m_Id: 966ac4f14464ec6488c555f9dfb75325
      m_Name: RemoteLoadPath
      m_InlineUsage: 0
    m_ProfileVersion: 1
  m_LabelTable:
    m_LabelNames:
    - default
  m_SchemaTemplates: []
  m_GroupTemplateObjects:
  - {fileID: 11400000, guid: 79e876d00f3fc594992041a346b657ed, type: 2}
  m_InitializationObjects: []
  m_CertificateHandlerType:
    m_AssemblyName: 
    m_ClassName: 
  m_ActivePlayerDataBuilderIndex: 3
  m_DataBuilders:
  - {fileID: 11400000, guid: 7b6dd529fcb727347832a2020dd660e5, type: 2}
  - {fileID: 11400000, guid: 3cc8942c525f07848aef21df68d42616, type: 2}
  - {fileID: 11400000, guid: aea8f1479a026f741af906771fae5983, type: 2}
  - {fileID: 11400000, guid: b76b9d5c77f3295468f4c0ffb9c2154a, type: 2}
  m_ActiveProfileId: c0754356409e2e64da2ede22e99040ad
  m_HostingServicesManager:
    m_HostingServiceInfos:
    - classRef: UnityEditor.AddressableAssets.HostingServices.HttpHostingService,
        Unity.Addressables.Editor
      dataStore:
        m_SerializedData:
        - m_AssemblyName: mscorlib, Version=4.0.0.0, Culture=neutral, PublicKeyToken=b77a5c561934e089
          m_ClassName: System.Int32
          m_Data: 60187
          m_Key: HostingServicePort
        - m_AssemblyName: mscorlib, Version=4.0.0.0, Culture=neutral, PublicKeyToken=b77a5c561934e089
          m_ClassName: System.String
          m_Data: Library/com.unity.addressables/StreamingAssetsCopy/aa/Windows/StandaloneWindows64
          m_Key: ContentRoot
        - m_AssemblyName: mscorlib, Version=4.0.0.0, Culture=neutral, PublicKeyToken=b77a5c561934e089
          m_ClassName: System.Boolean
          m_Data: True
          m_Key: IsEnabled
        - m_AssemblyName: mscorlib, Version=4.0.0.0, Culture=neutral, PublicKeyToken=b77a5c561934e089
          m_ClassName: System.String
          m_Data: RoguelikeHosting
          m_Key: DescriptiveName
        - m_AssemblyName: mscorlib, Version=4.0.0.0, Culture=neutral, PublicKeyToken=b77a5c561934e089
          m_ClassName: System.Int32
          m_Data: 0
          m_Key: InstanceId
    m_Settings: {fileID: 11400000}
    m_NextInstanceId: 1
    m_RegisteredServiceTypeRefs:
    - UnityEditor.AddressableAssets.HostingServices.HttpHostingService, Unity.Addressables.Editor
